{
  "extends": ["next/core-web-vitals"],
  "rules": {
    "import-name": false,
    "align": false,
    "variable-name": {
      "options": [
        "ban-keywords",
        "check-format",
        "allow-leading-underscore",
        "allow-pascal-case"
      ]
    }
  }
}
