<svg width="61" height="15" viewBox="0 0 61 15" fill="none" xmlns="http://www.w3.org/2000/svg">
<path d="M6.35749 3.90517C7.60054 3.90517 8.52576 4.25831 9.13316 4.96459C9.74056 5.67087 10.0443 6.73735 10.0443 8.16403V13.3764C10.0443 13.7719 9.92419 14.0826 9.68406 14.3087C9.45805 14.5347 9.14022 14.6477 8.73058 14.6477C8.32094 14.6477 7.99605 14.5347 7.75592 14.3087C7.51578 14.0826 7.39572 13.7719 7.39572 13.3764V8.31235C7.39572 7.50719 7.24034 6.92098 6.92957 6.55372C6.63294 6.18645 6.15973 6.00282 5.50995 6.00282C4.74717 6.00282 4.13271 6.24295 3.66657 6.72322C3.21455 7.20349 2.98854 7.84621 2.98854 8.65136V13.3764C2.98854 13.7719 2.86847 14.0826 2.62834 14.3087C2.3882 14.5347 2.06332 14.6477 1.65367 14.6477C1.24403 14.6477 0.919145 14.5347 0.67901 14.3087C0.453001 14.0826 0.339996 13.7719 0.339996 13.3764V5.17647C0.339996 4.80921 0.460064 4.51257 0.700198 4.28656C0.940333 4.06055 1.26522 3.94755 1.67486 3.94755C2.04213 3.94755 2.33876 4.06055 2.56477 4.28656C2.80491 4.49845 2.92498 4.78096 2.92498 5.1341V5.70618C3.27811 5.12703 3.75132 4.68208 4.34459 4.37132C4.93787 4.06055 5.60883 3.90517 6.35749 3.90517Z" fill="black"/>
<path d="M20.9131 3.94755C21.3227 3.94755 21.6476 4.06055 21.8877 4.28656C22.1279 4.51257 22.2479 4.81627 22.2479 5.19766V13.4187C22.2479 13.786 22.1208 14.0826 21.8665 14.3087C21.6264 14.5347 21.3086 14.6477 20.9131 14.6477C20.5317 14.6477 20.228 14.5417 20.002 14.3298C19.7759 14.118 19.6629 13.8284 19.6629 13.4611V12.9314C19.3381 13.4964 18.9002 13.9343 18.3493 14.2451C17.7984 14.5417 17.1768 14.69 16.4847 14.69C13.9421 14.69 12.6708 13.2634 12.6708 10.41V5.19766C12.6708 4.81627 12.7909 4.51257 13.031 4.28656C13.2711 4.06055 13.589 3.94755 13.9845 3.94755C14.3941 3.94755 14.719 4.06055 14.9591 4.28656C15.1993 4.51257 15.3193 4.81627 15.3193 5.19766V10.4312C15.3193 11.1657 15.4677 11.7095 15.7643 12.0627C16.0609 12.4158 16.5271 12.5924 17.1627 12.5924C17.8972 12.5924 18.4835 12.3523 18.9214 11.872C19.3734 11.3776 19.5994 10.7278 19.5994 9.92266V5.19766C19.5994 4.81627 19.7194 4.51257 19.9596 4.28656C20.1997 4.06055 20.5175 3.94755 20.9131 3.94755Z" fill="black"/>
<path d="M40.4819 12.0334C40.4819 12.4147 40.3759 12.7326 40.1641 12.9868C39.938 13.227 39.6202 13.347 39.2106 13.347H26.5611C26.1515 13.347 25.8407 13.227 25.6288 12.9868C25.417 12.7326 25.311 12.4147 25.311 12.0334C25.311 11.652 25.417 11.3341 25.6288 11.0799C25.8407 10.8256 26.1515 10.6985 26.5611 10.6985H39.2106C39.6202 10.6985 39.938 10.8256 40.1641 11.0799C40.3759 11.3341 40.4819 11.652 40.4819 12.0334Z" fill="black"/>
<path d="M40.4819 6.6535C40.4819 7.03489 40.3759 7.35271 40.1641 7.60697C39.938 7.84711 39.6202 7.96718 39.2106 7.96718H31.0319C30.6222 7.96718 30.3115 7.84711 30.0996 7.60697C29.8877 7.35271 29.7818 7.03489 29.7818 6.6535C29.7818 6.27211 29.8877 5.95428 30.0996 5.70002C30.3115 5.44576 30.6222 5.31863 31.0319 5.31863H39.2106C39.6202 5.31863 39.938 5.44576 40.1641 5.70002C40.3759 5.95428 40.4819 6.27211 40.4819 6.6535ZM27.896 6.6535C27.896 7.13377 27.7689 7.51516 27.5146 7.79767C27.2462 8.08018 26.9001 8.22144 26.4764 8.22144C26.0526 8.22144 25.7136 8.08018 25.4593 7.79767C25.2051 7.51516 25.0779 7.13377 25.0779 6.6535C25.0779 6.18735 25.2051 5.81303 25.4593 5.53051C25.7136 5.23388 26.0526 5.08556 26.4764 5.08556C26.9001 5.08556 27.2462 5.22682 27.5146 5.50933C27.7689 5.79184 27.896 6.17323 27.896 6.6535Z" fill="black"/>
<path d="M47.4687 14.69C45.929 14.69 44.686 14.3863 43.7396 13.7789C43.2876 13.5106 43.0616 13.1292 43.0616 12.6348C43.0616 12.3523 43.1392 12.1263 43.2946 11.9567C43.45 11.7731 43.6407 11.6813 43.8667 11.6813C44.1068 11.6813 44.4388 11.7943 44.8626 12.0203C45.3146 12.2322 45.7242 12.3946 46.0915 12.5076C46.4729 12.6206 46.9532 12.6771 47.5323 12.6771C48.1256 12.6771 48.5847 12.5783 48.9095 12.3805C49.2486 12.1828 49.4181 11.9073 49.4181 11.5542C49.4181 11.314 49.3474 11.1233 49.2062 10.9821C49.079 10.8408 48.8389 10.7137 48.4858 10.6007C48.1468 10.4736 47.6241 10.3323 46.9178 10.1769C45.6607 9.92266 44.7566 9.56246 44.2057 9.09632C43.669 8.63018 43.4006 7.98746 43.4006 7.16818C43.4006 6.54665 43.5842 5.98869 43.9515 5.4943C44.3187 4.98578 44.8202 4.59733 45.4558 4.32894C46.1056 4.04643 46.8401 3.90517 47.6594 3.90517C48.2527 3.90517 48.8248 3.98286 49.3757 4.13824C49.9266 4.2795 50.421 4.49138 50.8589 4.7739C51.3109 5.05641 51.5369 5.43073 51.5369 5.89688C51.5369 6.17939 51.4592 6.41952 51.3038 6.61728C51.1484 6.80091 50.9578 6.89273 50.7317 6.89273C50.5764 6.89273 50.421 6.86448 50.2656 6.80798C50.1243 6.73735 49.9407 6.63847 49.7147 6.51134C49.3051 6.29946 48.9519 6.14408 48.6553 6.0452C48.3586 5.93219 47.9914 5.87569 47.5535 5.87569C47.0308 5.87569 46.6141 5.98163 46.3034 6.19351C46.0067 6.4054 45.8584 6.69497 45.8584 7.06224C45.8584 7.41538 46.0138 7.68376 46.3246 7.86739C46.6353 8.05103 47.2357 8.23466 48.1256 8.41829C49.072 8.61605 49.8136 8.84206 50.3503 9.09632C50.8871 9.35058 51.2685 9.6684 51.4945 10.0498C51.7347 10.4312 51.8547 10.9185 51.8547 11.5118C51.8547 12.4723 51.4521 13.2422 50.647 13.8213C49.856 14.4005 48.7965 14.69 47.4687 14.69Z" fill="black"/>
<path d="M59.2806 12.6771C59.9869 12.7195 60.34 13.0374 60.34 13.6306C60.34 13.9696 60.1987 14.231 59.9162 14.4146C59.6478 14.5841 59.2594 14.6547 58.7509 14.6265L58.1788 14.5841C55.8057 14.4146 54.6191 13.1433 54.6191 10.7702V6.15114H53.5597C53.1783 6.15114 52.8817 6.06638 52.6698 5.89688C52.4721 5.72737 52.3732 5.48017 52.3732 5.15528C52.3732 4.8304 52.4721 4.5832 52.6698 4.41369C52.8817 4.24419 53.1783 4.15943 53.5597 4.15943H54.6191V2.2101C54.6191 1.82871 54.7392 1.52501 54.9793 1.29901C55.2195 1.073 55.5444 0.959991 55.954 0.959991C56.3495 0.959991 56.6673 1.073 56.9075 1.29901C57.1476 1.52501 57.2677 1.82871 57.2677 2.2101V4.15943H59.0687C59.4501 4.15943 59.7397 4.24419 59.9374 4.41369C60.1493 4.5832 60.2552 4.8304 60.2552 5.15528C60.2552 5.48017 60.1493 5.72737 59.9374 5.89688C59.7397 6.06638 59.4501 6.15114 59.0687 6.15114H57.2677V10.9609C57.2677 12.0062 57.748 12.5641 58.7085 12.6348L59.2806 12.6771Z" fill="black"/>
</svg>
